67ca881ef876c622c093419d0d8dbe13 = WAbdelkarim1989
14bfcc4be324181b91812b0b2f70ce40 = chatchien
e11f4bff1b9aa4c9b65224295dd22e16 = 17Poney
42167255eb290439c4200edfe3639ab5 = nipalnipal
a9b0cd97f83f9251411af4b5f1f0bd59 = marsouin89
6c69a73f35abf6c80c88f1e3801ca150
4eb01b0c1900c192da5c2aba253de3c0 = ViNcEnT
a409f32fef1cc24d4fbe7256accf8eb9 = hippocampe
8699fc754c2e40dc7ef0ca9634b92d17 = 673crabe
4bda49907d7f2d949d6ba4ff299a280c = crevetteteluop
54fd8fb2eaf6b40ecd347713770e83d5 = 167vivien